id,name,model_id:id,group_id:id,perm_read,perm_write,perm_create,perm_unlink
access_remote_agent_gpio_button,access_remote_agent_gpio_button,model_remote_agent_gpio_button,base.group_user,1,0,0,0
access_remote_agent_gpio_button_stats,access_remote_agent_gpio_button_stats,model_remote_agent_gpio_button_stats,base.group_user,1,0,0,0

access_admin_remote_agent_gpio_button,access_admin_remote_agent_gpio_button,model_remote_agent_gpio_button,base.user_admin,1,1,1,1
access_admin_remote_agent_gpio_button_stats,access_admin_remote_agent_gpio_button_stats,model_remote_agent_gpio_button_stats,base.user_admin,1,1,1,1

agent_remote_agent_gpio_button,agent_remote_agent_gpio_button,model_remote_agent_gpio_button,remote_agent.group_agent_agent,1,0,0,0
agent_remote_agent_gpio_button_stats,agent_remote_agent_gpio_button_stats,model_remote_agent_gpio_button_stats,remote_agent.group_agent_agent,1,1,1,0

